@__HELLO = dso_local global [i32 87, i32 101, i32 108, i32 99, i32 111, i32 109, i32 101, i32 32, i32 116, i32 111, i32 32, i32 116, i32 104, i32 101, i32 32, i32 74, i32 97, i32 112, i32 97, i32 114, i32 105, i32 32, i32 80, i32 97, i32 114, i32 107, i32 33, i32 10, i32 0, i32 0, i32 0, i32 0, i32 0, i32 0, i32 0, i32 0, i32 0, i32 0, i32 0, i32 0, i32 0, i32 0, i32 0, i32 0, i32 0, i32 0, i32 0, i32 0, i32 0, i32 0, i32 0, i32 0, i32 0, i32 0, i32 0, i32 0, i32 0, i32 0, i32 0, i32 0, i32 0, i32 0, i32 0, i32 0, i32 0, i32 0, i32 0, i32 0, i32 0, i32 0, i32 0, i32 0, i32 0, i32 0, i32 0, i32 0, i32 0, i32 0, i32 0, i32 0, i32 0, i32 0, i32 0, i32 0, i32 0, i32 0, i32 0, i32 0, i32 0, i32 0, i32 0, i32 0, i32 0, i32 0, i32 0, i32 0, i32 0, i32 0, i32 0, i32 0]

@N4__mE___ = dso_local global [i32 83, i32 97, i32 97, i32 98, i32 97, i32 114, i32 117, i32 0, i32 0, i32 0, i32 0, i32 0, i32 0, i32 0, i32 0, i32 0, i32 0, i32 0, i32 0, i32 0, i32 0, i32 0, i32 0, i32 0, i32 0, i32 0, i32 0, i32 0, i32 0, i32 0, i32 0, i32 0, i32 0, i32 0, i32 0, i32 0, i32 0, i32 0, i32 0, i32 0, i32 0, i32 0, i32 0, i32 0, i32 0, i32 0, i32 0, i32 0, i32 0, i32 0, i32 75, i32 97, i32 98, i32 97, i32 110, i32 0, i32 0, i32 0, i32 0, i32 0, i32 0, i32 0, i32 0, i32 0, i32 0, i32 0, i32 0, i32 0, i32 0, i32 0, i32 0, i32 0, i32 0, i32 0, i32 0, i32 0, i32 0, i32 0, i32 0, i32 0, i32 0, i32 0, i32 0, i32 0, i32 0, i32 0, i32 0, i32 0, i32 0, i32 0, i32 0, i32 0, i32 0, i32 0, i32 0, i32 0, i32 0, i32 0, i32 0, i32 0, i32 72, i32 97, i32 115, i32 104, i32 105, i32 98, i32 105, i32 114, i32 111, i32 107, i32 111, i32 117, i32 0, i32 0, i32 0, i32 0, i32 0, i32 0, i32 0, i32 0, i32 0, i32 0, i32 0, i32 0, i32 0, i32 0, i32 0, i32 0, i32 0, i32 0, i32 0, i32 0, i32 0, i32 0, i32 0, i32 0, i32 0, i32 0, i32 0, i32 0, i32 0, i32 0, i32 0, i32 0, i32 0, i32 0, i32 0, i32 0, i32 0, i32 0, i32 65, i32 114, i32 97, i32 105, i32 103, i32 117, i32 109, i32 97, i32 0, i32 0, i32 0, i32 0, i32 0, i32 0, i32 0, i32 0, i32 0, i32 0, i32 0, i32 0, i32 0, i32 0, i32 0, i32 0, i32 0, i32 0, i32 0, i32 0, i32 0, i32 0, i32 0, i32 0, i32 0, i32 0, i32 0, i32 0, i32 0, i32 0, i32 0, i32 0, i32 0, i32 0, i32 0, i32 0, i32 0, i32 0, i32 0, i32 0, i32 0, i32 0, i32 72, i32 117, i32 110, i32 98, i32 111, i32 114, i32 117, i32 116, i32 111, i32 32, i32 80, i32 101, i32 110, i32 103, i32 105, i32 110, i32 0, i32 0, i32 0, i32 0, i32 0, i32 0, i32 0, i32 0, i32 0, i32 0, i32 0, i32 0, i32 0, i32 0, i32 0, i32 0, i32 0, i32 0, i32 0, i32 0, i32 0, i32 0, i32 0, i32 0, i32 0, i32 0, i32 0, i32 0, i32 0, i32 0, i32 0, i32 0, i32 0, i32 0, i32 84, i32 97, i32 105, i32 114, i32 105, i32 107, i32 117, i32 32, i32 79, i32 111, i32 107, i32 97, i32 109, i32 105, i32 0, i32 0, i32 0, i32 0, i32 0, i32 0, i32 0, i32 0, i32 0, i32 0, i32 0, i32 0, i32 0, i32 0, i32 0, i32 0, i32 0, i32 0, i32 0, i32 0, i32 0, i32 0, i32 0, i32 0, i32 0, i32 0, i32 0, i32 0, i32 0, i32 0, i32 0, i32 0, i32 0, i32 0, i32 0, i32 0]

@saY_HeI10_To = dso_local global [i32 32, i32 115, i32 97, i32 121, i32 115, i32 32, i32 104, i32 101, i32 108, i32 108, i32 111, i32 32, i32 116, i32 111, i32 32, i32 0, i32 0, i32 0, i32 0, i32 0, i32 0, i32 0, i32 0, i32 0, i32 0, i32 0, i32 0, i32 0, i32 0, i32 0, i32 0, i32 0, i32 0, i32 0, i32 0, i32 0, i32 0, i32 0, i32 0, i32 0]

@RET = dso_local global [i32 10, i32 0, i32 0, i32 0, i32 0]

declare i32 @getint()

declare i32 @getch()

declare float @getfloat()

declare i32 @getarray(i32* )

declare i32 @getfarray(float* )

declare void @putint(i32 )

declare void @putch(i32 )

declare void @putfloat(float )

declare void @putarray(i32 , i32* )

declare void @putfarray(i32 , float* )

declare void @putf(i32* , i32 )

declare void @starttime()

declare void @stoptime()

define dso_local i32 @putstr(i32* %0){
1:
    %2 = alloca i32*
    store i32* %0, i32** %2
    %3 = alloca i32
    store i32 0, i32* %3
    br %4

4:
    %7 = load i32, i32* %3
    %8 = getelementptr i32*, i32** %2, i32 %7
    %9 = load i32*, i32** %8
    br i32* %9 %5 %6

5:
    %10 = load i32, i32* %3
    %11 = getelementptr i32*, i32** %2, i32 %10
    %12 = load i32*, i32** %11
    call void @putch(i32* %12)
    %13 = load i32, i32* %3
    %14 = load i32, i32* %3
    %15 = add i32 %14,1
    store i32 %15, i32* %3
    br %4

6:
    %16 = load i32, i32* %3
    ret i32 %16
}
define dso_local i32 @main(i32* %0){
1:
    %2 = load [100 x i32], [100 x i32]* @__HELLO
    %3 = call i32 @putstr([100 x i32] %2)
    %4 = alloca i32
    store i32 0, i32* %4
    br %5

5:
    br i32 1 %6 %7

6:
    %8 = load i32, i32* %4
    %9 = sdiv i32 %8,6
    %10 = alloca i32
    store i32 %9, i32* %10
    %11 = load i32, i32* %4
    %12 = srem i32 %11,6
    %13 = alloca i32
    store i32 %12, i32* %13
    %16 = load i32, i32* %10
    %17 = load i32, i32* %13
    %18 = icmp ne i32 %16,i32 %17
    br i32 %18 %15 %14

7:
    ret i32 0

14:
    %31 = load i32, i32* %4
    %32 = mul i32 %31,17
    %33 = load i32, i32* %4
    %34 = mul i32 %33,17
    %35 = add i32 %34,23
    %36 = srem i32 %35,32
    store i32 %36, i32* %4
    %39 = load i32, i32* %4
    %40 = icmp eq i32 %39,i32 0
    br i32 %40 %38 %37

15:
    %19 = load i32, i32* %10
    %20 = getelementptr [6 x [50 x i32]], [6 x [50 x i32]]* @N4__mE___, i32 %19
    %21 = load [50 x i32], [50 x i32]* %20
    %22 = call i32 @putstr([50 x i32] %21)
    %23 = load [40 x i32], [40 x i32]* @saY_HeI10_To
    %24 = call i32 @putstr([40 x i32] %23)
    %25 = load i32, i32* %13
    %26 = getelementptr [6 x [50 x i32]], [6 x [50 x i32]]* @N4__mE___, i32 %25
    %27 = load [50 x i32], [50 x i32]* %26
    %28 = call i32 @putstr([50 x i32] %27)
    %29 = load [5 x i32], [5 x i32]* @RET
    %30 = call i32 @putstr([5 x i32] %29)
    br %14

37:
    br %5

38:
    br %7
}

