declare i32 @getint()

declare i32 @getch()

declare float @getfloat()

declare i32 @getarray(i32* )

declare i32 @getfarray(float* )

declare void @putint(i32 )

declare void @putch(i32 )

declare void @putfloat(float )

declare void @putarray(i32 , i32* )

declare void @putfarray(i32 , float* )

declare void @putf(i32* , i32 )

declare void @starttime()

declare void @stoptime()

define dso_local i32 @relu_reg(i32 %0){
1:
    %2 = alloca i32
    store i32 %0, i32* %2
    %5 = load i32, i32* %2
    %6 = icmp gt i32 %5,i32 127
    br i32 %6 %4 %3

3:
    %9 = load i32, i32* %2
    %10 = icmp lt i32 %9,i32 0
    br i32 %10 %8 %7

4:
    ret i32 127

7:
    %11 = load i32, i32* %2
    ret i32 %11

8:
    ret i32 0
}
define dso_local i32 @model([5 x i32]* %0){
1:
    %2 = alloca [5 x i32]*
    store [5 x i32]* %0, [5 x i32]** %2
    %5 = getelementptr [5 x i32]*, [5 x i32]** %2, i32 0, i32 0
    %6 = load [5 x i32]*, [5 x i32]** %5
    %7 = mul i32 %6,85
    %8 = getelementptr [5 x i32]*, [5 x i32]** %2, i32 0, i32 1
    %9 = load [5 x i32]*, [5 x i32]** %8
    %10 = mul i32 %9,23
    %11 = getelementptr [5 x i32]*, [5 x i32]** %2, i32 0, i32 0
    %12 = load [5 x i32]*, [5 x i32]** %11
    %13 = mul i32 %12,85
    %14 = getelementptr [5 x i32]*, [5 x i32]** %2, i32 0, i32 1
    %15 = load [5 x i32]*, [5 x i32]** %14
    %16 = mul i32 %15,23
    %17 = add i32 %13,%16
    %18 = getelementptr [5 x i32]*, [5 x i32]** %2, i32 0, i32 2
    %19 = load [5 x i32]*, [5 x i32]** %18
    %20 = sub i32 0,82
    %21 = mul i32 %19,%20
    %22 = add i32 %17,%21
    %23 = getelementptr [5 x i32]*, [5 x i32]** %2, i32 0, i32 3
    %24 = load [5 x i32]*, [5 x i32]** %23
    %25 = sub i32 0,103
    %26 = mul i32 %24,%25
    %27 = add i32 %22,%26
    %28 = getelementptr [5 x i32]*, [5 x i32]** %2, i32 0, i32 4
    %29 = load [5 x i32]*, [5 x i32]** %28
    %30 = sub i32 0,123
    %31 = mul i32 %29,%30
    %32 = add i32 %27,%31
    %33 = getelementptr [5 x i32]*, [5 x i32]** %2, i32 1, i32 0
    %34 = load [5 x i32]*, [5 x i32]** %33
    %35 = mul i32 %34,64
    %36 = add i32 %32,%35
    %37 = getelementptr [5 x i32]*, [5 x i32]** %2, i32 1, i32 1
    %38 = load [5 x i32]*, [5 x i32]** %37
    %39 = sub i32 0,120
    %40 = mul i32 %38,%39
    %41 = add i32 %36,%40
    %42 = getelementptr [5 x i32]*, [5 x i32]** %2, i32 1, i32 2
    %43 = load [5 x i32]*, [5 x i32]** %42
    %44 = mul i32 %43,50
    %45 = add i32 %41,%44
    %46 = getelementptr [5 x i32]*, [5 x i32]** %2, i32 1, i32 3
    %47 = load [5 x i32]*, [5 x i32]** %46
    %48 = sub i32 0,59
    %49 = mul i32 %47,%48
    %50 = add i32 %45,%49
    %51 = getelementptr [5 x i32]*, [5 x i32]** %2, i32 1, i32 4
    %52 = load [5 x i32]*, [5 x i32]** %51
    %53 = mul i32 %52,47
    %54 = add i32 %50,%53
    %55 = getelementptr [5 x i32]*, [5 x i32]** %2, i32 2, i32 0
    %56 = load [5 x i32]*, [5 x i32]** %55
    %57 = sub i32 0,111
    %58 = mul i32 %56,%57
    %59 = add i32 %54,%58
    %60 = getelementptr [5 x i32]*, [5 x i32]** %2, i32 2, i32 1
    %61 = load [5 x i32]*, [5 x i32]** %60
    %62 = sub i32 0,67
    %63 = mul i32 %61,%62
    %64 = add i32 %59,%63
    %65 = getelementptr [5 x i32]*, [5 x i32]** %2, i32 2, i32 2
    %66 = load [5 x i32]*, [5 x i32]** %65
    %67 = sub i32 0,106
    %68 = mul i32 %66,%67
    %69 = add i32 %64,%68
    %70 = getelementptr [5 x i32]*, [5 x i32]** %2, i32 2, i32 3
    %71 = load [5 x i32]*, [5 x i32]** %70
    %72 = sub i32 0,75
    %73 = mul i32 %71,%72
    %74 = add i32 %69,%73
    %75 = getelementptr [5 x i32]*, [5 x i32]** %2, i32 2, i32 4
    %76 = load [5 x i32]*, [5 x i32]** %75
    %77 = sub i32 0,102
    %78 = mul i32 %76,%77
    %79 = add i32 %74,%78
    %80 = getelementptr [5 x i32]*, [5 x i32]** %2, i32 3, i32 0
    %81 = load [5 x i32]*, [5 x i32]** %80
    %82 = mul i32 %81,34
    %83 = add i32 %79,%82
    %84 = getelementptr [5 x i32]*, [5 x i32]** %2, i32 3, i32 1
    %85 = load [5 x i32]*, [5 x i32]** %84
    %86 = sub i32 0,39
    %87 = mul i32 %85,%86
    %88 = add i32 %83,%87
    %89 = getelementptr [5 x i32]*, [5 x i32]** %2, i32 3, i32 2
    %90 = load [5 x i32]*, [5 x i32]** %89
    %91 = mul i32 %90,65
    %92 = add i32 %88,%91
    %93 = getelementptr [5 x i32]*, [5 x i32]** %2, i32 3, i32 3
    %94 = load [5 x i32]*, [5 x i32]** %93
    %95 = mul i32 %94,47
    %96 = add i32 %92,%95
    %97 = getelementptr [5 x i32]*, [5 x i32]** %2, i32 3, i32 4
    %98 = load [5 x i32]*, [5 x i32]** %97
    %99 = mul i32 %98,113
    %100 = add i32 %96,%99
    %101 = getelementptr [5 x i32]*, [5 x i32]** %2, i32 4, i32 0
    %102 = load [5 x i32]*, [5 x i32]** %101
    %103 = mul i32 %102,110
    %104 = add i32 %100,%103
    %105 = getelementptr [5 x i32]*, [5 x i32]** %2, i32 4, i32 1
    %106 = load [5 x i32]*, [5 x i32]** %105
    %107 = mul i32 %106,47
    %108 = add i32 %104,%107
    %109 = getelementptr [5 x i32]*, [5 x i32]** %2, i32 4, i32 2
    %110 = load [5 x i32]*, [5 x i32]** %109
    %111 = sub i32 0,4
    %112 = mul i32 %110,%111
    %113 = add i32 %108,%112
    %114 = getelementptr [5 x i32]*, [5 x i32]** %2, i32 4, i32 3
    %115 = load [5 x i32]*, [5 x i32]** %114
    %116 = mul i32 %115,80
    %117 = add i32 %113,%116
    %118 = getelementptr [5 x i32]*, [5 x i32]** %2, i32 4, i32 4
    %119 = load [5 x i32]*, [5 x i32]** %118
    %120 = mul i32 %119,46
    %121 = add i32 %117,%120
    %122 = call i32 @relu_reg([5 x i32]* %121)
    %123 = mul i32 %122,39
    %124 = getelementptr [5 x i32]*, [5 x i32]** %2, i32 0, i32 0
    %125 = load [5 x i32]*, [5 x i32]** %124
    %126 = sub i32 0,106
    %127 = mul i32 %125,%126
    %128 = getelementptr [5 x i32]*, [5 x i32]** %2, i32 0, i32 1
    %129 = load [5 x i32]*, [5 x i32]** %128
    %130 = mul i32 %129,126
    %131 = getelementptr [5 x i32]*, [5 x i32]** %2, i32 0, i32 0
    %132 = load [5 x i32]*, [5 x i32]** %131
    %133 = sub i32 0,106
    %134 = mul i32 %132,%133
    %135 = getelementptr [5 x i32]*, [5 x i32]** %2, i32 0, i32 1
    %136 = load [5 x i32]*, [5 x i32]** %135
    %137 = mul i32 %136,126
    %138 = add i32 %134,%137
    %139 = getelementptr [5 x i32]*, [5 x i32]** %2, i32 0, i32 2
    %140 = load [5 x i32]*, [5 x i32]** %139
    %141 = sub i32 0,18
    %142 = mul i32 %140,%141
    %143 = add i32 %138,%142
    %144 = getelementptr [5 x i32]*, [5 x i32]** %2, i32 0, i32 3
    %145 = load [5 x i32]*, [5 x i32]** %144
    %146 = sub i32 0,31
    %147 = mul i32 %145,%146
    %148 = add i32 %143,%147
    %149 = getelementptr [5 x i32]*, [5 x i32]** %2, i32 0, i32 4
    %150 = load [5 x i32]*, [5 x i32]** %149
    %151 = sub i32 0,8
    %152 = mul i32 %150,%151
    %153 = add i32 %148,%152
    %154 = getelementptr [5 x i32]*, [5 x i32]** %2, i32 1, i32 0
    %155 = load [5 x i32]*, [5 x i32]** %154
    %156 = mul i32 %155,47
    %157 = add i32 %153,%156
    %158 = getelementptr [5 x i32]*, [5 x i32]** %2, i32 1, i32 1
    %159 = load [5 x i32]*, [5 x i32]** %158
    %160 = sub i32 0,4
    %161 = mul i32 %159,%160
    %162 = add i32 %157,%161
    %163 = getelementptr [5 x i32]*, [5 x i32]** %2, i32 1, i32 2
    %164 = load [5 x i32]*, [5 x i32]** %163
    %165 = mul i32 %164,67
    %166 = add i32 %162,%165
    %167 = getelementptr [5 x i32]*, [5 x i32]** %2, i32 1, i32 3
    %168 = load [5 x i32]*, [5 x i32]** %167
    %169 = sub i32 0,94
    %170 = mul i32 %168,%169
    %171 = add i32 %166,%170
    %172 = getelementptr [5 x i32]*, [5 x i32]** %2, i32 1, i32 4
    %173 = load [5 x i32]*, [5 x i32]** %172
    %174 = sub i32 0,121
    %175 = mul i32 %173,%174
    %176 = add i32 %171,%175
    %177 = getelementptr [5 x i32]*, [5 x i32]** %2, i32 2, i32 0
    %178 = load [5 x i32]*, [5 x i32]** %177
    %179 = mul i32 %178,7
    %180 = add i32 %176,%179
    %181 = getelementptr [5 x i32]*, [5 x i32]** %2, i32 2, i32 1
    %182 = load [5 x i32]*, [5 x i32]** %181
    %183 = sub i32 0,21
    %184 = mul i32 %182,%183
    %185 = add i32 %180,%184
    %186 = getelementptr [5 x i32]*, [5 x i32]** %2, i32 2, i32 2
    %187 = load [5 x i32]*, [5 x i32]** %186
    %188 = sub i32 0,60
    %189 = mul i32 %187,%188
    %190 = add i32 %185,%189
    %191 = getelementptr [5 x i32]*, [5 x i32]** %2, i32 2, i32 3
    %192 = load [5 x i32]*, [5 x i32]** %191
    %193 = sub i32 0,43
    %194 = mul i32 %192,%193
    %195 = add i32 %190,%194
    %196 = getelementptr [5 x i32]*, [5 x i32]** %2, i32 2, i32 4
    %197 = load [5 x i32]*, [5 x i32]** %196
    %198 = mul i32 %197,105
    %199 = add i32 %195,%198
    %200 = getelementptr [5 x i32]*, [5 x i32]** %2, i32 3, i32 0
    %201 = load [5 x i32]*, [5 x i32]** %200
    %202 = sub i32 0,42
    %203 = mul i32 %201,%202
    %204 = add i32 %199,%203
    %205 = getelementptr [5 x i32]*, [5 x i32]** %2, i32 3, i32 1
    %206 = load [5 x i32]*, [5 x i32]** %205
    %207 = mul i32 %206,87
    %208 = add i32 %204,%207
    %209 = getelementptr [5 x i32]*, [5 x i32]** %2, i32 3, i32 2
    %210 = load [5 x i32]*, [5 x i32]** %209
    %211 = mul i32 %210,29
    %212 = add i32 %208,%211
    %213 = getelementptr [5 x i32]*, [5 x i32]** %2, i32 3, i32 3
    %214 = load [5 x i32]*, [5 x i32]** %213
    %215 = sub i32 0,106
    %216 = mul i32 %214,%215
    %217 = add i32 %212,%216
    %218 = getelementptr [5 x i32]*, [5 x i32]** %2, i32 3, i32 4
    %219 = load [5 x i32]*, [5 x i32]** %218
    %220 = sub i32 0,31
    %221 = mul i32 %219,%220
    %222 = add i32 %217,%221
    %223 = getelementptr [5 x i32]*, [5 x i32]** %2, i32 4, i32 0
    %224 = load [5 x i32]*, [5 x i32]** %223
    %225 = sub i32 0,110
    %226 = mul i32 %224,%225
    %227 = add i32 %222,%226
    %228 = getelementptr [5 x i32]*, [5 x i32]** %2, i32 4, i32 1
    %229 = load [5 x i32]*, [5 x i32]** %228
    %230 = sub i32 0,100
    %231 = mul i32 %229,%230
    %232 = add i32 %227,%231
    %233 = getelementptr [5 x i32]*, [5 x i32]** %2, i32 4, i32 2
    %234 = load [5 x i32]*, [5 x i32]** %233
    %235 = sub i32 0,22
    %236 = mul i32 %234,%235
    %237 = add i32 %232,%236
    %238 = getelementptr [5 x i32]*, [5 x i32]** %2, i32 4, i32 3
    %239 = load [5 x i32]*, [5 x i32]** %238
    %240 = sub i32 0,75
    %241 = mul i32 %239,%240
    %242 = add i32 %237,%241
    %243 = getelementptr [5 x i32]*, [5 x i32]** %2, i32 4, i32 4
    %244 = load [5 x i32]*, [5 x i32]** %243
    %245 = sub i32 0,125
    %246 = mul i32 %244,%245
    %247 = add i32 %242,%246
    %248 = call i32 @relu_reg([5 x i32]* %247)
    %249 = mul i32 %248,77
    %250 = getelementptr [5 x i32]*, [5 x i32]** %2, i32 0, i32 0
    %251 = load [5 x i32]*, [5 x i32]** %250
    %252 = mul i32 %251,85
    %253 = getelementptr [5 x i32]*, [5 x i32]** %2, i32 0, i32 1
    %254 = load [5 x i32]*, [5 x i32]** %253
    %255 = mul i32 %254,23
    %256 = getelementptr [5 x i32]*, [5 x i32]** %2, i32 0, i32 0
    %257 = load [5 x i32]*, [5 x i32]** %256
    %258 = mul i32 %257,85
    %259 = getelementptr [5 x i32]*, [5 x i32]** %2, i32 0, i32 1
    %260 = load [5 x i32]*, [5 x i32]** %259
    %261 = mul i32 %260,23
    %262 = add i32 %258,%261
    %263 = getelementptr [5 x i32]*, [5 x i32]** %2, i32 0, i32 2
    %264 = load [5 x i32]*, [5 x i32]** %263
    %265 = sub i32 0,82
    %266 = mul i32 %264,%265
    %267 = add i32 %262,%266
    %268 = getelementptr [5 x i32]*, [5 x i32]** %2, i32 0, i32 3
    %269 = load [5 x i32]*, [5 x i32]** %268
    %270 = sub i32 0,103
    %271 = mul i32 %269,%270
    %272 = add i32 %267,%271
    %273 = getelementptr [5 x i32]*, [5 x i32]** %2, i32 0, i32 4
    %274 = load [5 x i32]*, [5 x i32]** %273
    %275 = sub i32 0,123
    %276 = mul i32 %274,%275
    %277 = add i32 %272,%276
    %278 = getelementptr [5 x i32]*, [5 x i32]** %2, i32 1, i32 0
    %279 = load [5 x i32]*, [5 x i32]** %278
    %280 = mul i32 %279,64
    %281 = add i32 %277,%280
    %282 = getelementptr [5 x i32]*, [5 x i32]** %2, i32 1, i32 1
    %283 = load [5 x i32]*, [5 x i32]** %282
    %284 = sub i32 0,120
    %285 = mul i32 %283,%284
    %286 = add i32 %281,%285
    %287 = getelementptr [5 x i32]*, [5 x i32]** %2, i32 1, i32 2
    %288 = load [5 x i32]*, [5 x i32]** %287
    %289 = mul i32 %288,50
    %290 = add i32 %286,%289
    %291 = getelementptr [5 x i32]*, [5 x i32]** %2, i32 1, i32 3
    %292 = load [5 x i32]*, [5 x i32]** %291
    %293 = sub i32 0,59
    %294 = mul i32 %292,%293
    %295 = add i32 %290,%294
    %296 = getelementptr [5 x i32]*, [5 x i32]** %2, i32 1, i32 4
    %297 = load [5 x i32]*, [5 x i32]** %296
    %298 = mul i32 %297,47
    %299 = add i32 %295,%298
    %300 = getelementptr [5 x i32]*, [5 x i32]** %2, i32 2, i32 0
    %301 = load [5 x i32]*, [5 x i32]** %300
    %302 = sub i32 0,111
    %303 = mul i32 %301,%302
    %304 = add i32 %299,%303
    %305 = getelementptr [5 x i32]*, [5 x i32]** %2, i32 2, i32 1
    %306 = load [5 x i32]*, [5 x i32]** %305
    %307 = sub i32 0,67
    %308 = mul i32 %306,%307
    %309 = add i32 %304,%308
    %310 = getelementptr [5 x i32]*, [5 x i32]** %2, i32 2, i32 2
    %311 = load [5 x i32]*, [5 x i32]** %310
    %312 = sub i32 0,106
    %313 = mul i32 %311,%312
    %314 = add i32 %309,%313
    %315 = getelementptr [5 x i32]*, [5 x i32]** %2, i32 2, i32 3
    %316 = load [5 x i32]*, [5 x i32]** %315
    %317 = sub i32 0,75
    %318 = mul i32 %316,%317
    %319 = add i32 %314,%318
    %320 = getelementptr [5 x i32]*, [5 x i32]** %2, i32 2, i32 4
    %321 = load [5 x i32]*, [5 x i32]** %320
    %322 = sub i32 0,102
    %323 = mul i32 %321,%322
    %324 = add i32 %319,%323
    %325 = getelementptr [5 x i32]*, [5 x i32]** %2, i32 3, i32 0
    %326 = load [5 x i32]*, [5 x i32]** %325
    %327 = mul i32 %326,34
    %328 = add i32 %324,%327
    %329 = getelementptr [5 x i32]*, [5 x i32]** %2, i32 3, i32 1
    %330 = load [5 x i32]*, [5 x i32]** %329
    %331 = sub i32 0,39
    %332 = mul i32 %330,%331
    %333 = add i32 %328,%332
    %334 = getelementptr [5 x i32]*, [5 x i32]** %2, i32 3, i32 2
    %335 = load [5 x i32]*, [5 x i32]** %334
    %336 = mul i32 %335,65
    %337 = add i32 %333,%336
    %338 = getelementptr [5 x i32]*, [5 x i32]** %2, i32 3, i32 3
    %339 = load [5 x i32]*, [5 x i32]** %338
    %340 = mul i32 %339,47
    %341 = add i32 %337,%340
    %342 = getelementptr [5 x i32]*, [5 x i32]** %2, i32 3, i32 4
    %343 = load [5 x i32]*, [5 x i32]** %342
    %344 = mul i32 %343,113
    %345 = add i32 %341,%344
    %346 = getelementptr [5 x i32]*, [5 x i32]** %2, i32 4, i32 0
    %347 = load [5 x i32]*, [5 x i32]** %346
    %348 = mul i32 %347,110
    %349 = add i32 %345,%348
    %350 = getelementptr [5 x i32]*, [5 x i32]** %2, i32 4, i32 1
    %351 = load [5 x i32]*, [5 x i32]** %350
    %352 = mul i32 %351,47
    %353 = add i32 %349,%352
    %354 = getelementptr [5 x i32]*, [5 x i32]** %2, i32 4, i32 2
    %355 = load [5 x i32]*, [5 x i32]** %354
    %356 = sub i32 0,4
    %357 = mul i32 %355,%356
    %358 = add i32 %353,%357
    %359 = getelementptr [5 x i32]*, [5 x i32]** %2, i32 4, i32 3
    %360 = load [5 x i32]*, [5 x i32]** %359
    %361 = mul i32 %360,80
    %362 = add i32 %358,%361
    %363 = getelementptr [5 x i32]*, [5 x i32]** %2, i32 4, i32 4
    %364 = load [5 x i32]*, [5 x i32]** %363
    %365 = mul i32 %364,46
    %366 = add i32 %362,%365
    %367 = call i32 @relu_reg([5 x i32]* %366)
    %368 = mul i32 %367,39
    %369 = getelementptr [5 x i32]*, [5 x i32]** %2, i32 0, i32 0
    %370 = load [5 x i32]*, [5 x i32]** %369
    %371 = sub i32 0,106
    %372 = mul i32 %370,%371
    %373 = getelementptr [5 x i32]*, [5 x i32]** %2, i32 0, i32 1
    %374 = load [5 x i32]*, [5 x i32]** %373
    %375 = mul i32 %374,126
    %376 = getelementptr [5 x i32]*, [5 x i32]** %2, i32 0, i32 0
    %377 = load [5 x i32]*, [5 x i32]** %376
    %378 = sub i32 0,106
    %379 = mul i32 %377,%378
    %380 = getelementptr [5 x i32]*, [5 x i32]** %2, i32 0, i32 1
    %381 = load [5 x i32]*, [5 x i32]** %380
    %382 = mul i32 %381,126
    %383 = add i32 %379,%382
    %384 = getelementptr [5 x i32]*, [5 x i32]** %2, i32 0, i32 2
    %385 = load [5 x i32]*, [5 x i32]** %384
    %386 = sub i32 0,18
    %387 = mul i32 %385,%386
    %388 = add i32 %383,%387
    %389 = getelementptr [5 x i32]*, [5 x i32]** %2, i32 0, i32 3
    %390 = load [5 x i32]*, [5 x i32]** %389
    %391 = sub i32 0,31
    %392 = mul i32 %390,%391
    %393 = add i32 %388,%392
    %394 = getelementptr [5 x i32]*, [5 x i32]** %2, i32 0, i32 4
    %395 = load [5 x i32]*, [5 x i32]** %394
    %396 = sub i32 0,8
    %397 = mul i32 %395,%396
    %398 = add i32 %393,%397
    %399 = getelementptr [5 x i32]*, [5 x i32]** %2, i32 1, i32 0
    %400 = load [5 x i32]*, [5 x i32]** %399
    %401 = mul i32 %400,47
    %402 = add i32 %398,%401
    %403 = getelementptr [5 x i32]*, [5 x i32]** %2, i32 1, i32 1
    %404 = load [5 x i32]*, [5 x i32]** %403
    %405 = sub i32 0,4
    %406 = mul i32 %404,%405
    %407 = add i32 %402,%406
    %408 = getelementptr [5 x i32]*, [5 x i32]** %2, i32 1, i32 2
    %409 = load [5 x i32]*, [5 x i32]** %408
    %410 = mul i32 %409,67
    %411 = add i32 %407,%410
    %412 = getelementptr [5 x i32]*, [5 x i32]** %2, i32 1, i32 3
    %413 = load [5 x i32]*, [5 x i32]** %412
    %414 = sub i32 0,94
    %415 = mul i32 %413,%414
    %416 = add i32 %411,%415
    %417 = getelementptr [5 x i32]*, [5 x i32]** %2, i32 1, i32 4
    %418 = load [5 x i32]*, [5 x i32]** %417
    %419 = sub i32 0,121
    %420 = mul i32 %418,%419
    %421 = add i32 %416,%420
    %422 = getelementptr [5 x i32]*, [5 x i32]** %2, i32 2, i32 0
    %423 = load [5 x i32]*, [5 x i32]** %422
    %424 = mul i32 %423,7
    %425 = add i32 %421,%424
    %426 = getelementptr [5 x i32]*, [5 x i32]** %2, i32 2, i32 1
    %427 = load [5 x i32]*, [5 x i32]** %426
    %428 = sub i32 0,21
    %429 = mul i32 %427,%428
    %430 = add i32 %425,%429
    %431 = getelementptr [5 x i32]*, [5 x i32]** %2, i32 2, i32 2
    %432 = load [5 x i32]*, [5 x i32]** %431
    %433 = sub i32 0,60
    %434 = mul i32 %432,%433
    %435 = add i32 %430,%434
    %436 = getelementptr [5 x i32]*, [5 x i32]** %2, i32 2, i32 3
    %437 = load [5 x i32]*, [5 x i32]** %436
    %438 = sub i32 0,43
    %439 = mul i32 %437,%438
    %440 = add i32 %435,%439
    %441 = getelementptr [5 x i32]*, [5 x i32]** %2, i32 2, i32 4
    %442 = load [5 x i32]*, [5 x i32]** %441
    %443 = mul i32 %442,105
    %444 = add i32 %440,%443
    %445 = getelementptr [5 x i32]*, [5 x i32]** %2, i32 3, i32 0
    %446 = load [5 x i32]*, [5 x i32]** %445
    %447 = sub i32 0,42
    %448 = mul i32 %446,%447
    %449 = add i32 %444,%448
    %450 = getelementptr [5 x i32]*, [5 x i32]** %2, i32 3, i32 1
    %451 = load [5 x i32]*, [5 x i32]** %450
    %452 = mul i32 %451,87
    %453 = add i32 %449,%452
    %454 = getelementptr [5 x i32]*, [5 x i32]** %2, i32 3, i32 2
    %455 = load [5 x i32]*, [5 x i32]** %454
    %456 = mul i32 %455,29
    %457 = add i32 %453,%456
    %458 = getelementptr [5 x i32]*, [5 x i32]** %2, i32 3, i32 3
    %459 = load [5 x i32]*, [5 x i32]** %458
    %460 = sub i32 0,106
    %461 = mul i32 %459,%460
    %462 = add i32 %457,%461
    %463 = getelementptr [5 x i32]*, [5 x i32]** %2, i32 3, i32 4
    %464 = load [5 x i32]*, [5 x i32]** %463
    %465 = sub i32 0,31
    %466 = mul i32 %464,%465
    %467 = add i32 %462,%466
    %468 = getelementptr [5 x i32]*, [5 x i32]** %2, i32 4, i32 0
    %469 = load [5 x i32]*, [5 x i32]** %468
    %470 = sub i32 0,110
    %471 = mul i32 %469,%470
    %472 = add i32 %467,%471
    %473 = getelementptr [5 x i32]*, [5 x i32]** %2, i32 4, i32 1
    %474 = load [5 x i32]*, [5 x i32]** %473
    %475 = sub i32 0,100
    %476 = mul i32 %474,%475
    %477 = add i32 %472,%476
    %478 = getelementptr [5 x i32]*, [5 x i32]** %2, i32 4, i32 2
    %479 = load [5 x i32]*, [5 x i32]** %478
    %480 = sub i32 0,22
    %481 = mul i32 %479,%480
    %482 = add i32 %477,%481
    %483 = getelementptr [5 x i32]*, [5 x i32]** %2, i32 4, i32 3
    %484 = load [5 x i32]*, [5 x i32]** %483
    %485 = sub i32 0,75
    %486 = mul i32 %484,%485
    %487 = add i32 %482,%486
    %488 = getelementptr [5 x i32]*, [5 x i32]** %2, i32 4, i32 4
    %489 = load [5 x i32]*, [5 x i32]** %488
    %490 = sub i32 0,125
    %491 = mul i32 %489,%490
    %492 = add i32 %487,%491
    %493 = call i32 @relu_reg([5 x i32]* %492)
    %494 = mul i32 %493,77
    %495 = add i32 %368,%494
    %496 = getelementptr [5 x i32]*, [5 x i32]** %2, i32 0, i32 0
    %497 = load [5 x i32]*, [5 x i32]** %496
    %498 = mul i32 %497,26
    %499 = getelementptr [5 x i32]*, [5 x i32]** %2, i32 0, i32 1
    %500 = load [5 x i32]*, [5 x i32]** %499
    %501 = mul i32 %500,76
    %502 = getelementptr [5 x i32]*, [5 x i32]** %2, i32 0, i32 0
    %503 = load [5 x i32]*, [5 x i32]** %502
    %504 = mul i32 %503,26
    %505 = getelementptr [5 x i32]*, [5 x i32]** %2, i32 0, i32 1
    %506 = load [5 x i32]*, [5 x i32]** %505
    %507 = mul i32 %506,76
    %508 = add i32 %504,%507
    %509 = getelementptr [5 x i32]*, [5 x i32]** %2, i32 0, i32 2
    %510 = load [5 x i32]*, [5 x i32]** %509
    %511 = sub i32 0,70
    %512 = mul i32 %510,%511
    %513 = add i32 %508,%512
    %514 = getelementptr [5 x i32]*, [5 x i32]** %2, i32 0, i32 3
    %515 = load [5 x i32]*, [5 x i32]** %514
    %516 = mul i32 %515,29
    %517 = add i32 %513,%516
    %518 = getelementptr [5 x i32]*, [5 x i32]** %2, i32 0, i32 4
    %519 = load [5 x i32]*, [5 x i32]** %518
    %520 = sub i32 0,95
    %521 = mul i32 %519,%520
    %522 = add i32 %517,%521
    %523 = getelementptr [5 x i32]*, [5 x i32]** %2, i32 1, i32 0
    %524 = load [5 x i32]*, [5 x i32]** %523
    %525 = mul i32 %524,96
    %526 = add i32 %522,%525
    %527 = getelementptr [5 x i32]*, [5 x i32]** %2, i32 1, i32 1
    %528 = load [5 x i32]*, [5 x i32]** %527
    %529 = mul i32 %528,52
    %530 = add i32 %526,%529
    %531 = getelementptr [5 x i32]*, [5 x i32]** %2, i32 1, i32 2
    %532 = load [5 x i32]*, [5 x i32]** %531
    %533 = sub i32 0,68
    %534 = mul i32 %532,%533
    %535 = add i32 %530,%534
    %536 = getelementptr [5 x i32]*, [5 x i32]** %2, i32 1, i32 3
    %537 = load [5 x i32]*, [5 x i32]** %536
    %538 = sub i32 0,5
    %539 = mul i32 %537,%538
    %540 = add i32 %535,%539
    %541 = getelementptr [5 x i32]*, [5 x i32]** %2, i32 1, i32 4
    %542 = load [5 x i32]*, [5 x i32]** %541
    %543 = mul i32 %542,34
    %544 = add i32 %540,%543
    %545 = getelementptr [5 x i32]*, [5 x i32]** %2, i32 2, i32 0
    %546 = load [5 x i32]*, [5 x i32]** %545
    %547 = sub i32 0,34
    %548 = mul i32 %546,%547
    %549 = add i32 %544,%548
    %550 = getelementptr [5 x i32]*, [5 x i32]** %2, i32 2, i32 1
    %551 = load [5 x i32]*, [5 x i32]** %550
    %552 = mul i32 %551,102
    %553 = add i32 %549,%552
    %554 = getelementptr [5 x i32]*, [5 x i32]** %2, i32 2, i32 2
    %555 = load [5 x i32]*, [5 x i32]** %554
    %556 = mul i32 %555,6
    %557 = add i32 %553,%556
    %558 = getelementptr [5 x i32]*, [5 x i32]** %2, i32 2, i32 3
    %559 = load [5 x i32]*, [5 x i32]** %558
    %560 = sub i32 0,38
    %561 = mul i32 %559,%560
    %562 = add i32 %557,%561
    %563 = getelementptr [5 x i32]*, [5 x i32]** %2, i32 2, i32 4
    %564 = load [5 x i32]*, [5 x i32]** %563
    %565 = mul i32 %564,27
    %566 = add i32 %562,%565
    %567 = getelementptr [5 x i32]*, [5 x i32]** %2, i32 3, i32 0
    %568 = load [5 x i32]*, [5 x i32]** %567
    %569 = mul i32 %568,110
    %570 = add i32 %566,%569
    %571 = getelementptr [5 x i32]*, [5 x i32]** %2, i32 3, i32 1
    %572 = load [5 x i32]*, [5 x i32]** %571
    %573 = mul i32 %572,116
    %574 = add i32 %570,%573
    %575 = getelementptr [5 x i32]*, [5 x i32]** %2, i32 3, i32 2
    %576 = load [5 x i32]*, [5 x i32]** %575
    %577 = mul i32 %576,39
    %578 = add i32 %574,%577
    %579 = getelementptr [5 x i32]*, [5 x i32]** %2, i32 3, i32 3
    %580 = load [5 x i32]*, [5 x i32]** %579
    %581 = sub i32 0,63
    %582 = mul i32 %580,%581
    %583 = add i32 %578,%582
    %584 = getelementptr [5 x i32]*, [5 x i32]** %2, i32 3, i32 4
    %585 = load [5 x i32]*, [5 x i32]** %584
    %586 = sub i32 0,99
    %587 = mul i32 %585,%586
    %588 = add i32 %583,%587
    %589 = getelementptr [5 x i32]*, [5 x i32]** %2, i32 4, i32 0
    %590 = load [5 x i32]*, [5 x i32]** %589
    %591 = mul i32 %590,65
    %592 = add i32 %588,%591
    %593 = getelementptr [5 x i32]*, [5 x i32]** %2, i32 4, i32 1
    %594 = load [5 x i32]*, [5 x i32]** %593
    %595 = mul i32 %594,120
    %596 = add i32 %592,%595
    %597 = getelementptr [5 x i32]*, [5 x i32]** %2, i32 4, i32 2
    %598 = load [5 x i32]*, [5 x i32]** %597
    %599 = sub i32 0,39
    %600 = mul i32 %598,%599
    %601 = add i32 %596,%600
    %602 = getelementptr [5 x i32]*, [5 x i32]** %2, i32 4, i32 3
    %603 = load [5 x i32]*, [5 x i32]** %602
    %604 = sub i32 0,6
    %605 = mul i32 %603,%604
    %606 = add i32 %601,%605
    %607 = getelementptr [5 x i32]*, [5 x i32]** %2, i32 4, i32 4
    %608 = load [5 x i32]*, [5 x i32]** %607
    %609 = mul i32 %608,94
    %610 = add i32 %606,%609
    %611 = call i32 @relu_reg([5 x i32]* %610)
    %612 = mul i32 %611,127
    %613 = add i32 %495,%612
    %614 = getelementptr [5 x i32]*, [5 x i32]** %2, i32 0, i32 0
    %615 = load [5 x i32]*, [5 x i32]** %614
    %616 = sub i32 0,23
    %617 = mul i32 %615,%616
    %618 = getelementptr [5 x i32]*, [5 x i32]** %2, i32 0, i32 1
    %619 = load [5 x i32]*, [5 x i32]** %618
    %620 = sub i32 0,63
    %621 = mul i32 %619,%620
    %622 = getelementptr [5 x i32]*, [5 x i32]** %2, i32 0, i32 0
    %623 = load [5 x i32]*, [5 x i32]** %622
    %624 = sub i32 0,23
    %625 = mul i32 %623,%624
    %626 = getelementptr [5 x i32]*, [5 x i32]** %2, i32 0, i32 1
    %627 = load [5 x i32]*, [5 x i32]** %626
    %628 = sub i32 0,63
    %629 = mul i32 %627,%628
    %630 = add i32 %625,%629
    %631 = getelementptr [5 x i32]*, [5 x i32]** %2, i32 0, i32 2
    %632 = load [5 x i32]*, [5 x i32]** %631
    %633 = mul i32 %632,49
    %634 = add i32 %630,%633
    %635 = getelementptr [5 x i32]*, [5 x i32]** %2, i32 0, i32 3
    %636 = load [5 x i32]*, [5 x i32]** %635
    %637 = mul i32 %636,50
    %638 = add i32 %634,%637
    %639 = getelementptr [5 x i32]*, [5 x i32]** %2, i32 0, i32 4
    %640 = load [5 x i32]*, [5 x i32]** %639
    %641 = mul i32 %640,72
    %642 = add i32 %638,%641
    %643 = getelementptr [5 x i32]*, [5 x i32]** %2, i32 1, i32 0
    %644 = load [5 x i32]*, [5 x i32]** %643
    %645 = mul i32 %644,85
    %646 = add i32 %642,%645
    %647 = getelementptr [5 x i32]*, [5 x i32]** %2, i32 1, i32 1
    %648 = load [5 x i32]*, [5 x i32]** %647
    %649 = sub i32 0,30
    %650 = mul i32 %648,%649
    %651 = add i32 %646,%650
    %652 = getelementptr [5 x i32]*, [5 x i32]** %2, i32 1, i32 2
    %653 = load [5 x i32]*, [5 x i32]** %652
    %654 = mul i32 %653,12
    %655 = add i32 %651,%654
    %656 = getelementptr [5 x i32]*, [5 x i32]** %2, i32 1, i32 3
    %657 = load [5 x i32]*, [5 x i32]** %656
    %658 = mul i32 %657,125
    %659 = add i32 %655,%658
    %660 = getelementptr [5 x i32]*, [5 x i32]** %2, i32 1, i32 4
    %661 = load [5 x i32]*, [5 x i32]** %660
    %662 = sub i32 0,117
    %663 = mul i32 %661,%662
    %664 = add i32 %659,%663
    %665 = getelementptr [5 x i32]*, [5 x i32]** %2, i32 2, i32 0
    %666 = load [5 x i32]*, [5 x i32]** %665
    %667 = sub i32 0,65
    %668 = mul i32 %666,%667
    %669 = add i32 %664,%668
    %670 = getelementptr [5 x i32]*, [5 x i32]** %2, i32 2, i32 1
    %671 = load [5 x i32]*, [5 x i32]** %670
    %672 = sub i32 0,67
    %673 = mul i32 %671,%672
    %674 = add i32 %669,%673
    %675 = getelementptr [5 x i32]*, [5 x i32]** %2, i32 2, i32 2
    %676 = load [5 x i32]*, [5 x i32]** %675
    %677 = mul i32 %676,125
    %678 = add i32 %674,%677
    %679 = getelementptr [5 x i32]*, [5 x i32]** %2, i32 2, i32 3
    %680 = load [5 x i32]*, [5 x i32]** %679
    %681 = mul i32 %680,110
    %682 = add i32 %678,%681
    %683 = getelementptr [5 x i32]*, [5 x i32]** %2, i32 2, i32 4
    %684 = load [5 x i32]*, [5 x i32]** %683
    %685 = sub i32 0,31
    %686 = mul i32 %684,%685
    %687 = add i32 %682,%686
    %688 = getelementptr [5 x i32]*, [5 x i32]** %2, i32 3, i32 0
    %689 = load [5 x i32]*, [5 x i32]** %688
    %690 = sub i32 0,123
    %691 = mul i32 %689,%690
    %692 = add i32 %687,%691
    %693 = getelementptr [5 x i32]*, [5 x i32]** %2, i32 3, i32 1
    %694 = load [5 x i32]*, [5 x i32]** %693
    %695 = mul i32 %694,83
    %696 = add i32 %692,%695
    %697 = getelementptr [5 x i32]*, [5 x i32]** %2, i32 3, i32 2
    %698 = load [5 x i32]*, [5 x i32]** %697
    %699 = mul i32 %698,122
    %700 = add i32 %696,%699
    %701 = getelementptr [5 x i32]*, [5 x i32]** %2, i32 3, i32 3
    %702 = load [5 x i32]*, [5 x i32]** %701
    %703 = mul i32 %702,11
    %704 = add i32 %700,%703
    %705 = getelementptr [5 x i32]*, [5 x i32]** %2, i32 3, i32 4
    %706 = load [5 x i32]*, [5 x i32]** %705
    %707 = sub i32 0,23
    %708 = mul i32 %706,%707
    %709 = add i32 %704,%708
    %710 = getelementptr [5 x i32]*, [5 x i32]** %2, i32 4, i32 0
    %711 = load [5 x i32]*, [5 x i32]** %710
    %712 = sub i32 0,47
    %713 = mul i32 %711,%712
    %714 = add i32 %709,%713
    %715 = getelementptr [5 x i32]*, [5 x i32]** %2, i32 4, i32 1
    %716 = load [5 x i32]*, [5 x i32]** %715
    %717 = sub i32 0,32
    %718 = mul i32 %716,%717
    %719 = add i32 %714,%718
    %720 = getelementptr [5 x i32]*, [5 x i32]** %2, i32 4, i32 2
    %721 = load [5 x i32]*, [5 x i32]** %720
    %722 = sub i32 0,117
    %723 = mul i32 %721,%722
    %724 = add i32 %719,%723
    %725 = getelementptr [5 x i32]*, [5 x i32]** %2, i32 4, i32 3
    %726 = load [5 x i32]*, [5 x i32]** %725
    %727 = mul i32 %726,95
    %728 = add i32 %724,%727
    %729 = getelementptr [5 x i32]*, [5 x i32]** %2, i32 4, i32 4
    %730 = load [5 x i32]*, [5 x i32]** %729
    %731 = mul i32 %730,118
    %732 = add i32 %728,%731
    %733 = call i32 @relu_reg([5 x i32]* %732)
    %734 = sub i32 0,106
    %735 = mul i32 %733,%734
    %736 = add i32 %613,%735
    %737 = getelementptr [5 x i32]*, [5 x i32]** %2, i32 0, i32 0
    %738 = load [5 x i32]*, [5 x i32]** %737
    %739 = mul i32 %738,8
    %740 = getelementptr [5 x i32]*, [5 x i32]** %2, i32 0, i32 1
    %741 = load [5 x i32]*, [5 x i32]** %740
    %742 = mul i32 %741,82
    %743 = getelementptr [5 x i32]*, [5 x i32]** %2, i32 0, i32 0
    %744 = load [5 x i32]*, [5 x i32]** %743
    %745 = mul i32 %744,8
    %746 = getelementptr [5 x i32]*, [5 x i32]** %2, i32 0, i32 1
    %747 = load [5 x i32]*, [5 x i32]** %746
    %748 = mul i32 %747,82
    %749 = add i32 %745,%748
    %750 = getelementptr [5 x i32]*, [5 x i32]** %2, i32 0, i32 2
    %751 = load [5 x i32]*, [5 x i32]** %750
    %752 = sub i32 0,104
    %753 = mul i32 %751,%752
    %754 = add i32 %749,%753
    %755 = getelementptr [5 x i32]*, [5 x i32]** %2, i32 0, i32 3
    %756 = load [5 x i32]*, [5 x i32]** %755
    %757 = mul i32 %756,101
    %758 = add i32 %754,%757
    %759 = getelementptr [5 x i32]*, [5 x i32]** %2, i32 0, i32 4
    %760 = load [5 x i32]*, [5 x i32]** %759
    %761 = sub i32 0,116
    %762 = mul i32 %760,%761
    %763 = add i32 %758,%762
    %764 = getelementptr [5 x i32]*, [5 x i32]** %2, i32 1, i32 0
    %765 = load [5 x i32]*, [5 x i32]** %764
    %766 = sub i32 0,63
    %767 = mul i32 %765,%766
    %768 = add i32 %763,%767
    %769 = getelementptr [5 x i32]*, [5 x i32]** %2, i32 1, i32 1
    %770 = load [5 x i32]*, [5 x i32]** %769
    %771 = sub i32 0,16
    %772 = mul i32 %770,%771
    %773 = add i32 %768,%772
    %774 = getelementptr [5 x i32]*, [5 x i32]** %2, i32 1, i32 2
    %775 = load [5 x i32]*, [5 x i32]** %774
    %776 = sub i32 0,70
    %777 = mul i32 %775,%776
    %778 = add i32 %773,%777
    %779 = getelementptr [5 x i32]*, [5 x i32]** %2, i32 1, i32 3
    %780 = load [5 x i32]*, [5 x i32]** %779
    %781 = mul i32 %780,125
    %782 = add i32 %778,%781
    %783 = getelementptr [5 x i32]*, [5 x i32]** %2, i32 1, i32 4
    %784 = load [5 x i32]*, [5 x i32]** %783
    %785 = mul i32 %784,75
    %786 = add i32 %782,%785
    %787 = getelementptr [5 x i32]*, [5 x i32]** %2, i32 2, i32 0
    %788 = load [5 x i32]*, [5 x i32]** %787
    %789 = mul i32 %788,66
    %790 = add i32 %786,%789
    %791 = getelementptr [5 x i32]*, [5 x i32]** %2, i32 2, i32 1
    %792 = load [5 x i32]*, [5 x i32]** %791
    %793 = sub i32 0,96
    %794 = mul i32 %792,%793
    %795 = add i32 %790,%794
    %796 = getelementptr [5 x i32]*, [5 x i32]** %2, i32 2, i32 2
    %797 = load [5 x i32]*, [5 x i32]** %796
    %798 = sub i32 0,101
    %799 = mul i32 %797,%798
    %800 = add i32 %795,%799
    %801 = getelementptr [5 x i32]*, [5 x i32]** %2, i32 2, i32 3
    %802 = load [5 x i32]*, [5 x i32]** %801
    %803 = sub i32 0,114
    %804 = mul i32 %802,%803
    %805 = add i32 %800,%804
    %806 = getelementptr [5 x i32]*, [5 x i32]** %2, i32 2, i32 4
    %807 = load [5 x i32]*, [5 x i32]** %806
    %808 = mul i32 %807,59
    %809 = add i32 %805,%808
    %810 = getelementptr [5 x i32]*, [5 x i32]** %2, i32 3, i32 0
    %811 = load [5 x i32]*, [5 x i32]** %810
    %812 = mul i32 %811,12
    %813 = add i32 %809,%812
    %814 = getelementptr [5 x i32]*, [5 x i32]** %2, i32 3, i32 1
    %815 = load [5 x i32]*, [5 x i32]** %814
    %816 = mul i32 %815,5
    %817 = add i32 %813,%816
    %818 = getelementptr [5 x i32]*, [5 x i32]** %2, i32 3, i32 2
    %819 = load [5 x i32]*, [5 x i32]** %818
    %820 = sub i32 0,95
    %821 = mul i32 %819,%820
    %822 = add i32 %817,%821
    %823 = getelementptr [5 x i32]*, [5 x i32]** %2, i32 3, i32 3
    %824 = load [5 x i32]*, [5 x i32]** %823
    %825 = mul i32 %824,116
    %826 = add i32 %822,%825
    %827 = getelementptr [5 x i32]*, [5 x i32]** %2, i32 3, i32 4
    %828 = load [5 x i32]*, [5 x i32]** %827
    %829 = sub i32 0,93
    %830 = mul i32 %828,%829
    %831 = add i32 %826,%830
    %832 = getelementptr [5 x i32]*, [5 x i32]** %2, i32 4, i32 0
    %833 = load [5 x i32]*, [5 x i32]** %832
    %834 = mul i32 %833,15
    %835 = add i32 %831,%834
    %836 = getelementptr [5 x i32]*, [5 x i32]** %2, i32 4, i32 1
    %837 = load [5 x i32]*, [5 x i32]** %836
    %838 = mul i32 %837,79
    %839 = add i32 %835,%838
    %840 = getelementptr [5 x i32]*, [5 x i32]** %2, i32 4, i32 2
    %841 = load [5 x i32]*, [5 x i32]** %840
    %842 = mul i32 %841,3
    %843 = add i32 %839,%842
    %844 = getelementptr [5 x i32]*, [5 x i32]** %2, i32 4, i32 3
    %845 = load [5 x i32]*, [5 x i32]** %844
    %846 = mul i32 %845,49
    %847 = add i32 %843,%846
    %848 = getelementptr [5 x i32]*, [5 x i32]** %2, i32 4, i32 4
    %849 = load [5 x i32]*, [5 x i32]** %848
    %850 = sub i32 0,124
    %851 = mul i32 %849,%850
    %852 = add i32 %847,%851
    %853 = call i32 @relu_reg([5 x i32]* %852)
    %854 = sub i32 0,3
    %855 = mul i32 %853,%854
    %856 = add i32 %736,%855
    %857 = getelementptr [5 x i32]*, [5 x i32]** %2, i32 0, i32 0
    %858 = load [5 x i32]*, [5 x i32]** %857
    %859 = mul i32 %858,81
    %860 = getelementptr [5 x i32]*, [5 x i32]** %2, i32 0, i32 1
    %861 = load [5 x i32]*, [5 x i32]** %860
    %862 = mul i32 %861,68
    %863 = getelementptr [5 x i32]*, [5 x i32]** %2, i32 0, i32 0
    %864 = load [5 x i32]*, [5 x i32]** %863
    %865 = mul i32 %864,81
    %866 = getelementptr [5 x i32]*, [5 x i32]** %2, i32 0, i32 1
    %867 = load [5 x i32]*, [5 x i32]** %866
    %868 = mul i32 %867,68
    %869 = add i32 %865,%868
    %870 = getelementptr [5 x i32]*, [5 x i32]** %2, i32 0, i32 2
    %871 = load [5 x i32]*, [5 x i32]** %870
    %872 = sub i32 0,102
    %873 = mul i32 %871,%872
    %874 = add i32 %869,%873
    %875 = getelementptr [5 x i32]*, [5 x i32]** %2, i32 0, i32 3
    %876 = load [5 x i32]*, [5 x i32]** %875
    %877 = sub i32 0,74
    %878 = mul i32 %876,%877
    %879 = add i32 %874,%878
    %880 = getelementptr [5 x i32]*, [5 x i32]** %2, i32 0, i32 4
    %881 = load [5 x i32]*, [5 x i32]** %880
    %882 = mul i32 %881,121
    %883 = add i32 %879,%882
    %884 = getelementptr [5 x i32]*, [5 x i32]** %2, i32 1, i32 0
    %885 = load [5 x i32]*, [5 x i32]** %884
    %886 = sub i32 0,15
    %887 = mul i32 %885,%886
    %888 = add i32 %883,%887
    %889 = getelementptr [5 x i32]*, [5 x i32]** %2, i32 1, i32 1
    %890 = load [5 x i32]*, [5 x i32]** %889
    %891 = mul i32 %890,55
    %892 = add i32 %888,%891
    %893 = getelementptr [5 x i32]*, [5 x i32]** %2, i32 1, i32 2
    %894 = load [5 x i32]*, [5 x i32]** %893
    %895 = mul i32 %894,101
    %896 = add i32 %892,%895
    %897 = getelementptr [5 x i32]*, [5 x i32]** %2, i32 1, i32 3
    %898 = load [5 x i32]*, [5 x i32]** %897
    %899 = sub i32 0,13
    %900 = mul i32 %898,%899
    %901 = add i32 %896,%900
    %902 = getelementptr [5 x i32]*, [5 x i32]** %2, i32 1, i32 4
    %903 = load [5 x i32]*, [5 x i32]** %902
    %904 = sub i32 0,62
    %905 = mul i32 %903,%904
    %906 = add i32 %901,%905
    %907 = getelementptr [5 x i32]*, [5 x i32]** %2, i32 2, i32 0
    %908 = load [5 x i32]*, [5 x i32]** %907
    %909 = mul i32 %908,64
    %910 = add i32 %906,%909
    %911 = getelementptr [5 x i32]*, [5 x i32]** %2, i32 2, i32 1
    %912 = load [5 x i32]*, [5 x i32]** %911
    %913 = mul i32 %912,114
    %914 = add i32 %910,%913
    %915 = getelementptr [5 x i32]*, [5 x i32]** %2, i32 2, i32 2
    %916 = load [5 x i32]*, [5 x i32]** %915
    %917 = mul i32 %916,38
    %918 = add i32 %914,%917
    %919 = getelementptr [5 x i32]*, [5 x i32]** %2, i32 2, i32 3
    %920 = load [5 x i32]*, [5 x i32]** %919
    %921 = sub i32 0,21
    %922 = mul i32 %920,%921
    %923 = add i32 %918,%922
    %924 = getelementptr [5 x i32]*, [5 x i32]** %2, i32 2, i32 4
    %925 = load [5 x i32]*, [5 x i32]** %924
    %926 = mul i32 %925,112
    %927 = add i32 %923,%926
    %928 = getelementptr [5 x i32]*, [5 x i32]** %2, i32 3, i32 0
    %929 = load [5 x i32]*, [5 x i32]** %928
    %930 = mul i32 %929,114
    %931 = add i32 %927,%930
    %932 = getelementptr [5 x i32]*, [5 x i32]** %2, i32 3, i32 1
    %933 = load [5 x i32]*, [5 x i32]** %932
    %934 = mul i32 %933,112
    %935 = add i32 %931,%934
    %936 = getelementptr [5 x i32]*, [5 x i32]** %2, i32 3, i32 2
    %937 = load [5 x i32]*, [5 x i32]** %936
    %938 = sub i32 0,10
    %939 = mul i32 %937,%938
    %940 = add i32 %935,%939
    %941 = getelementptr [5 x i32]*, [5 x i32]** %2, i32 3, i32 3
    %942 = load [5 x i32]*, [5 x i32]** %941
    %943 = sub i32 0,16
    %944 = mul i32 %942,%943
    %945 = add i32 %940,%944
    %946 = getelementptr [5 x i32]*, [5 x i32]** %2, i32 3, i32 4
    %947 = load [5 x i32]*, [5 x i32]** %946
    %948 = sub i32 0,50
    %949 = mul i32 %947,%948
    %950 = add i32 %945,%949
    %951 = getelementptr [5 x i32]*, [5 x i32]** %2, i32 4, i32 0
    %952 = load [5 x i32]*, [5 x i32]** %951
    %953 = sub i32 0,112
    %954 = mul i32 %952,%953
    %955 = add i32 %950,%954
    %956 = getelementptr [5 x i32]*, [5 x i32]** %2, i32 4, i32 1
    %957 = load [5 x i32]*, [5 x i32]** %956
    %958 = sub i32 0,116
    %959 = mul i32 %957,%958
    %960 = add i32 %955,%959
    %961 = getelementptr [5 x i32]*, [5 x i32]** %2, i32 4, i32 2
    %962 = load [5 x i32]*, [5 x i32]** %961
    %963 = sub i32 0,54
    %964 = mul i32 %962,%963
    %965 = add i32 %960,%964
    %966 = getelementptr [5 x i32]*, [5 x i32]** %2, i32 4, i32 3
    %967 = load [5 x i32]*, [5 x i32]** %966
    %968 = mul i32 %967,82
    %969 = add i32 %965,%968
    %970 = getelementptr [5 x i32]*, [5 x i32]** %2, i32 4, i32 4
    %971 = load [5 x i32]*, [5 x i32]** %970
    %972 = sub i32 0,72
    %973 = mul i32 %971,%972
    %974 = add i32 %969,%973
    %975 = call i32 @relu_reg([5 x i32]* %974)
    %976 = mul i32 %975,32
    %977 = add i32 %856,%976
    %978 = getelementptr [5 x i32]*, [5 x i32]** %2, i32 0, i32 0
    %979 = load [5 x i32]*, [5 x i32]** %978
    %980 = mul i32 %979,15
    %981 = getelementptr [5 x i32]*, [5 x i32]** %2, i32 0, i32 1
    %982 = load [5 x i32]*, [5 x i32]** %981
    %983 = sub i32 0,77
    %984 = mul i32 %982,%983
    %985 = getelementptr [5 x i32]*, [5 x i32]** %2, i32 0, i32 0
    %986 = load [5 x i32]*, [5 x i32]** %985
    %987 = mul i32 %986,15
    %988 = getelementptr [5 x i32]*, [5 x i32]** %2, i32 0, i32 1
    %989 = load [5 x i32]*, [5 x i32]** %988
    %990 = sub i32 0,77
    %991 = mul i32 %989,%990
    %992 = add i32 %987,%991
    %993 = getelementptr [5 x i32]*, [5 x i32]** %2, i32 0, i32 2
    %994 = load [5 x i32]*, [5 x i32]** %993
    %995 = mul i32 %994,66
    %996 = add i32 %992,%995
    %997 = getelementptr [5 x i32]*, [5 x i32]** %2, i32 0, i32 3
    %998 = load [5 x i32]*, [5 x i32]** %997
    %999 = sub i32 0,90
    %1000 = mul i32 %998,%999
    %1001 = add i32 %996,%1000
    %1002 = getelementptr [5 x i32]*, [5 x i32]** %2, i32 0, i32 4
    %1003 = load [5 x i32]*, [5 x i32]** %1002
    %1004 = sub i32 0,6
    %1005 = mul i32 %1003,%1004
    %1006 = add i32 %1001,%1005
    %1007 = getelementptr [5 x i32]*, [5 x i32]** %2, i32 1, i32 0
    %1008 = load [5 x i32]*, [5 x i32]** %1007
    %1009 = sub i32 0,30
    %1010 = mul i32 %1008,%1009
    %1011 = add i32 %1006,%1010
    %1012 = getelementptr [5 x i32]*, [5 x i32]** %2, i32 1, i32 1
    %1013 = load [5 x i32]*, [5 x i32]** %1012
    %1014 = sub i32 0,8
    %1015 = mul i32 %1013,%1014
    %1016 = add i32 %1011,%1015
    %1017 = getelementptr [5 x i32]*, [5 x i32]** %2, i32 1, i32 2
    %1018 = load [5 x i32]*, [5 x i32]** %1017
    %1019 = mul i32 %1018,81
    %1020 = add i32 %1016,%1019
    %1021 = getelementptr [5 x i32]*, [5 x i32]** %2, i32 1, i32 3
    %1022 = load [5 x i32]*, [5 x i32]** %1021
    %1023 = mul i32 %1022,2
    %1024 = add i32 %1020,%1023
    %1025 = getelementptr [5 x i32]*, [5 x i32]** %2, i32 1, i32 4
    %1026 = load [5 x i32]*, [5 x i32]** %1025
    %1027 = sub i32 0,110
    %1028 = mul i32 %1026,%1027
    %1029 = add i32 %1024,%1028
    %1030 = getelementptr [5 x i32]*, [5 x i32]** %2, i32 2, i32 0
    %1031 = load [5 x i32]*, [5 x i32]** %1030
    %1032 = sub i32 0,95
    %1033 = mul i32 %1031,%1032
    %1034 = add i32 %1029,%1033
    %1035 = getelementptr [5 x i32]*, [5 x i32]** %2, i32 2, i32 1
    %1036 = load [5 x i32]*, [5 x i32]** %1035
    %1037 = mul i32 %1036,59
    %1038 = add i32 %1034,%1037
    %1039 = getelementptr [5 x i32]*, [5 x i32]** %2, i32 2, i32 2
    %1040 = load [5 x i32]*, [5 x i32]** %1039
    %1041 = mul i32 %1040,52
    %1042 = add i32 %1038,%1041
    %1043 = getelementptr [5 x i32]*, [5 x i32]** %2, i32 2, i32 3
    %1044 = load [5 x i32]*, [5 x i32]** %1043
    %1045 = mul i32 %1044,15
    %1046 = add i32 %1042,%1045
    %1047 = getelementptr [5 x i32]*, [5 x i32]** %2, i32 2, i32 4
    %1048 = load [5 x i32]*, [5 x i32]** %1047
    %1049 = mul i32 %1048,55
    %1050 = add i32 %1046,%1049
    %1051 = getelementptr [5 x i32]*, [5 x i32]** %2, i32 3, i32 0
    %1052 = load [5 x i32]*, [5 x i32]** %1051
    %1053 = sub i32 0,33
    %1054 = mul i32 %1052,%1053
    %1055 = add i32 %1050,%1054
    %1056 = getelementptr [5 x i32]*, [5 x i32]** %2, i32 3, i32 1
    %1057 = load [5 x i32]*, [5 x i32]** %1056
    %1058 = mul i32 %1057,14
    %1059 = add i32 %1055,%1058
    %1060 = getelementptr [5 x i32]*, [5 x i32]** %2, i32 3, i32 2
    %1061 = load [5 x i32]*, [5 x i32]** %1060
    %1062 = mul i32 %1061,58
    %1063 = add i32 %1059,%1062
    %1064 = getelementptr [5 x i32]*, [5 x i32]** %2, i32 3, i32 3
    %1065 = load [5 x i32]*, [5 x i32]** %1064
    %1066 = mul i32 %1065,67
    %1067 = add i32 %1063,%1066
    %1068 = getelementptr [5 x i32]*, [5 x i32]** %2, i32 3, i32 4
    %1069 = load [5 x i32]*, [5 x i32]** %1068
    %1070 = mul i32 %1069,86
    %1071 = add i32 %1067,%1070
    %1072 = getelementptr [5 x i32]*, [5 x i32]** %2, i32 4, i32 0
    %1073 = load [5 x i32]*, [5 x i32]** %1072
    %1074 = sub i32 0,79
    %1075 = mul i32 %1073,%1074
    %1076 = add i32 %1071,%1075
    %1077 = getelementptr [5 x i32]*, [5 x i32]** %2, i32 4, i32 1
    %1078 = load [5 x i32]*, [5 x i32]** %1077
    %1079 = mul i32 %1078,48
    %1080 = add i32 %1076,%1079
    %1081 = getelementptr [5 x i32]*, [5 x i32]** %2, i32 4, i32 2
    %1082 = load [5 x i32]*, [5 x i32]** %1081
    %1083 = sub i32 0,13
    %1084 = mul i32 %1082,%1083
    %1085 = add i32 %1080,%1084
    %1086 = getelementptr [5 x i32]*, [5 x i32]** %2, i32 4, i32 3
    %1087 = load [5 x i32]*, [5 x i32]** %1086
    %1088 = sub i32 0,15
    %1089 = mul i32 %1087,%1088
    %1090 = add i32 %1085,%1089
    %1091 = getelementptr [5 x i32]*, [5 x i32]** %2, i32 4, i32 4
    %1092 = load [5 x i32]*, [5 x i32]** %1091
    %1093 = mul i32 %1092,66
    %1094 = add i32 %1090,%1093
    %1095 = call i32 @relu_reg([5 x i32]* %1094)
    %1096 = sub i32 0,95
    %1097 = mul i32 %1095,%1096
    %1098 = add i32 %977,%1097
    %1099 = getelementptr [5 x i32]*, [5 x i32]** %2, i32 0, i32 0
    %1100 = load [5 x i32]*, [5 x i32]** %1099
    %1101 = mul i32 %1100,33
    %1102 = getelementptr [5 x i32]*, [5 x i32]** %2, i32 0, i32 1
    %1103 = load [5 x i32]*, [5 x i32]** %1102
    %1104 = mul i32 %1103,82
    %1105 = getelementptr [5 x i32]*, [5 x i32]** %2, i32 0, i32 0
    %1106 = load [5 x i32]*, [5 x i32]** %1105
    %1107 = mul i32 %1106,33
    %1108 = getelementptr [5 x i32]*, [5 x i32]** %2, i32 0, i32 1
    %1109 = load [5 x i32]*, [5 x i32]** %1108
    %1110 = mul i32 %1109,82
    %1111 = add i32 %1107,%1110
    %1112 = getelementptr [5 x i32]*, [5 x i32]** %2, i32 0, i32 2
    %1113 = load [5 x i32]*, [5 x i32]** %1112
    %1114 = mul i32 %1113,67
    %1115 = add i32 %1111,%1114
    %1116 = getelementptr [5 x i32]*, [5 x i32]** %2, i32 0, i32 3
    %1117 = load [5 x i32]*, [5 x i32]** %1116
    %1118 = mul i32 %1117,30
    %1119 = add i32 %1115,%1118
    %1120 = getelementptr [5 x i32]*, [5 x i32]** %2, i32 0, i32 4
    %1121 = load [5 x i32]*, [5 x i32]** %1120
    %1122 = sub i32 0,2
    %1123 = mul i32 %1121,%1122
    %1124 = add i32 %1119,%1123
    %1125 = getelementptr [5 x i32]*, [5 x i32]** %2, i32 1, i32 0
    %1126 = load [5 x i32]*, [5 x i32]** %1125
    %1127 = mul i32 %1126,65
    %1128 = add i32 %1124,%1127
    %1129 = getelementptr [5 x i32]*, [5 x i32]** %2, i32 1, i32 1
    %1130 = load [5 x i32]*, [5 x i32]** %1129
    %1131 = mul i32 %1130,120
    %1132 = add i32 %1128,%1131
    %1133 = getelementptr [5 x i32]*, [5 x i32]** %2, i32 1, i32 2
    %1134 = load [5 x i32]*, [5 x i32]** %1133
    %1135 = sub i32 0,13
    %1136 = mul i32 %1134,%1135
    %1137 = add i32 %1132,%1136
    %1138 = getelementptr [5 x i32]*, [5 x i32]** %2, i32 1, i32 3
    %1139 = load [5 x i32]*, [5 x i32]** %1138
    %1140 = mul i32 %1139,18
    %1141 = add i32 %1137,%1140
    %1142 = getelementptr [5 x i32]*, [5 x i32]** %2, i32 1, i32 4
    %1143 = load [5 x i32]*, [5 x i32]** %1142
    %1144 = mul i32 %1143,5
    %1145 = add i32 %1141,%1144
    %1146 = getelementptr [5 x i32]*, [5 x i32]** %2, i32 2, i32 0
    %1147 = load [5 x i32]*, [5 x i32]** %1146
    %1148 = mul i32 %1147,104
    %1149 = add i32 %1145,%1148
    %1150 = getelementptr [5 x i32]*, [5 x i32]** %2, i32 2, i32 1
    %1151 = load [5 x i32]*, [5 x i32]** %1150
    %1152 = sub i32 0,119
    %1153 = mul i32 %1151,%1152
    %1154 = add i32 %1149,%1153
    %1155 = getelementptr [5 x i32]*, [5 x i32]** %2, i32 2, i32 2
    %1156 = load [5 x i32]*, [5 x i32]** %1155
    %1157 = sub i32 0,7
    %1158 = mul i32 %1156,%1157
    %1159 = add i32 %1154,%1158
    %1160 = getelementptr [5 x i32]*, [5 x i32]** %2, i32 2, i32 3
    %1161 = load [5 x i32]*, [5 x i32]** %1160
    %1162 = mul i32 %1161,71
    %1163 = add i32 %1159,%1162
    %1164 = getelementptr [5 x i32]*, [5 x i32]** %2, i32 2, i32 4
    %1165 = load [5 x i32]*, [5 x i32]** %1164
    %1166 = mul i32 %1165,107
    %1167 = add i32 %1163,%1166
    %1168 = getelementptr [5 x i32]*, [5 x i32]** %2, i32 3, i32 0
    %1169 = load [5 x i32]*, [5 x i32]** %1168
    %1170 = mul i32 %1169,24
    %1171 = add i32 %1167,%1170
    %1172 = getelementptr [5 x i32]*, [5 x i32]** %2, i32 3, i32 1
    %1173 = load [5 x i32]*, [5 x i32]** %1172
    %1174 = mul i32 %1173,82
    %1175 = add i32 %1171,%1174
    %1176 = getelementptr [5 x i32]*, [5 x i32]** %2, i32 3, i32 2
    %1177 = load [5 x i32]*, [5 x i32]** %1176
    %1178 = sub i32 0,96
    %1179 = mul i32 %1177,%1178
    %1180 = add i32 %1175,%1179
    %1181 = getelementptr [5 x i32]*, [5 x i32]** %2, i32 3, i32 3
    %1182 = load [5 x i32]*, [5 x i32]** %1181
    %1183 = sub i32 0,104
    %1184 = mul i32 %1182,%1183
    %1185 = add i32 %1180,%1184
    %1186 = getelementptr [5 x i32]*, [5 x i32]** %2, i32 3, i32 4
    %1187 = load [5 x i32]*, [5 x i32]** %1186
    %1188 = sub i32 0,121
    %1189 = mul i32 %1187,%1188
    %1190 = add i32 %1185,%1189
    %1191 = getelementptr [5 x i32]*, [5 x i32]** %2, i32 4, i32 0
    %1192 = load [5 x i32]*, [5 x i32]** %1191
    %1193 = mul i32 %1192,65
    %1194 = add i32 %1190,%1193
    %1195 = getelementptr [5 x i32]*, [5 x i32]** %2, i32 4, i32 1
    %1196 = load [5 x i32]*, [5 x i32]** %1195
    %1197 = mul i32 %1196,97
    %1198 = add i32 %1194,%1197
    %1199 = getelementptr [5 x i32]*, [5 x i32]** %2, i32 4, i32 2
    %1200 = load [5 x i32]*, [5 x i32]** %1199
    %1201 = mul i32 %1200,83
    %1202 = add i32 %1198,%1201
    %1203 = getelementptr [5 x i32]*, [5 x i32]** %2, i32 4, i32 3
    %1204 = load [5 x i32]*, [5 x i32]** %1203
    %1205 = mul i32 %1204,46
    %1206 = add i32 %1202,%1205
    %1207 = getelementptr [5 x i32]*, [5 x i32]** %2, i32 4, i32 4
    %1208 = load [5 x i32]*, [5 x i32]** %1207
    %1209 = sub i32 0,84
    %1210 = mul i32 %1208,%1209
    %1211 = add i32 %1206,%1210
    %1212 = call i32 @relu_reg([5 x i32]* %1211)
    %1213 = sub i32 0,50
    %1214 = mul i32 %1212,%1213
    %1215 = add i32 %1098,%1214
    %1216 = getelementptr [5 x i32]*, [5 x i32]** %2, i32 0, i32 0
    %1217 = load [5 x i32]*, [5 x i32]** %1216
    %1218 = sub i32 0,29
    %1219 = mul i32 %1217,%1218
    %1220 = getelementptr [5 x i32]*, [5 x i32]** %2, i32 0, i32 1
    %1221 = load [5 x i32]*, [5 x i32]** %1220
    %1222 = mul i32 %1221,7
    %1223 = getelementptr [5 x i32]*, [5 x i32]** %2, i32 0, i32 0
    %1224 = load [5 x i32]*, [5 x i32]** %1223
    %1225 = sub i32 0,29
    %1226 = mul i32 %1224,%1225
    %1227 = getelementptr [5 x i32]*, [5 x i32]** %2, i32 0, i32 1
    %1228 = load [5 x i32]*, [5 x i32]** %1227
    %1229 = mul i32 %1228,7
    %1230 = add i32 %1226,%1229
    %1231 = getelementptr [5 x i32]*, [5 x i32]** %2, i32 0, i32 2
    %1232 = load [5 x i32]*, [5 x i32]** %1231
    %1233 = sub i32 0,70
    %1234 = mul i32 %1232,%1233
    %1235 = add i32 %1230,%1234
    %1236 = getelementptr [5 x i32]*, [5 x i32]** %2, i32 0, i32 3
    %1237 = load [5 x i32]*, [5 x i32]** %1236
    %1238 = mul i32 %1237,38
    %1239 = add i32 %1235,%1238
    %1240 = getelementptr [5 x i32]*, [5 x i32]** %2, i32 0, i32 4
    %1241 = load [5 x i32]*, [5 x i32]** %1240
    %1242 = sub i32 0,90
    %1243 = mul i32 %1241,%1242
    %1244 = add i32 %1239,%1243
    %1245 = getelementptr [5 x i32]*, [5 x i32]** %2, i32 1, i32 0
    %1246 = load [5 x i32]*, [5 x i32]** %1245
    %1247 = sub i32 0,15
    %1248 = mul i32 %1246,%1247
    %1249 = add i32 %1244,%1248
    %1250 = getelementptr [5 x i32]*, [5 x i32]** %2, i32 1, i32 1
    %1251 = load [5 x i32]*, [5 x i32]** %1250
    %1252 = sub i32 0,32
    %1253 = mul i32 %1251,%1252
    %1254 = add i32 %1249,%1253
    %1255 = getelementptr [5 x i32]*, [5 x i32]** %2, i32 1, i32 2
    %1256 = load [5 x i32]*, [5 x i32]** %1255
    %1257 = mul i32 %1256,37
    %1258 = add i32 %1254,%1257
    %1259 = getelementptr [5 x i32]*, [5 x i32]** %2, i32 1, i32 3
    %1260 = load [5 x i32]*, [5 x i32]** %1259
    %1261 = mul i32 %1260,36
    %1262 = add i32 %1258,%1261
    %1263 = getelementptr [5 x i32]*, [5 x i32]** %2, i32 1, i32 4
    %1264 = load [5 x i32]*, [5 x i32]** %1263
    %1265 = sub i32 0,62
    %1266 = mul i32 %1264,%1265
    %1267 = add i32 %1262,%1266
    %1268 = getelementptr [5 x i32]*, [5 x i32]** %2, i32 2, i32 0
    %1269 = load [5 x i32]*, [5 x i32]** %1268
    %1270 = sub i32 0,125
    %1271 = mul i32 %1269,%1270
    %1272 = add i32 %1267,%1271
    %1273 = getelementptr [5 x i32]*, [5 x i32]** %2, i32 2, i32 1
    %1274 = load [5 x i32]*, [5 x i32]** %1273
    %1275 = sub i32 0,46
    %1276 = mul i32 %1274,%1275
    %1277 = add i32 %1272,%1276
    %1278 = getelementptr [5 x i32]*, [5 x i32]** %2, i32 2, i32 2
    %1279 = load [5 x i32]*, [5 x i32]** %1278
    %1280 = sub i32 0,70
    %1281 = mul i32 %1279,%1280
    %1282 = add i32 %1277,%1281
    %1283 = getelementptr [5 x i32]*, [5 x i32]** %2, i32 2, i32 3
    %1284 = load [5 x i32]*, [5 x i32]** %1283
    %1285 = mul i32 %1284,37
    %1286 = add i32 %1282,%1285
    %1287 = getelementptr [5 x i32]*, [5 x i32]** %2, i32 2, i32 4
    %1288 = load [5 x i32]*, [5 x i32]** %1287
    %1289 = sub i32 0,73
    %1290 = mul i32 %1288,%1289
    %1291 = add i32 %1286,%1290
    %1292 = getelementptr [5 x i32]*, [5 x i32]** %2, i32 3, i32 0
    %1293 = load [5 x i32]*, [5 x i32]** %1292
    %1294 = sub i32 0,34
    %1295 = mul i32 %1293,%1294
    %1296 = add i32 %1291,%1295
    %1297 = getelementptr [5 x i32]*, [5 x i32]** %2, i32 3, i32 1
    %1298 = load [5 x i32]*, [5 x i32]** %1297
    %1299 = sub i32 0,87
    %1300 = mul i32 %1298,%1299
    %1301 = add i32 %1296,%1300
    %1302 = getelementptr [5 x i32]*, [5 x i32]** %2, i32 3, i32 2
    %1303 = load [5 x i32]*, [5 x i32]** %1302
    %1304 = sub i32 0,75
    %1305 = mul i32 %1303,%1304
    %1306 = add i32 %1301,%1305
    %1307 = getelementptr [5 x i32]*, [5 x i32]** %2, i32 3, i32 3
    %1308 = load [5 x i32]*, [5 x i32]** %1307
    %1309 = mul i32 %1308,71
    %1310 = add i32 %1306,%1309
    %1311 = getelementptr [5 x i32]*, [5 x i32]** %2, i32 3, i32 4
    %1312 = load [5 x i32]*, [5 x i32]** %1311
    %1313 = sub i32 0,77
    %1314 = mul i32 %1312,%1313
    %1315 = add i32 %1310,%1314
    %1316 = getelementptr [5 x i32]*, [5 x i32]** %2, i32 4, i32 0
    %1317 = load [5 x i32]*, [5 x i32]** %1316
    %1318 = mul i32 %1317,53
    %1319 = add i32 %1315,%1318
    %1320 = getelementptr [5 x i32]*, [5 x i32]** %2, i32 4, i32 1
    %1321 = load [5 x i32]*, [5 x i32]** %1320
    %1322 = mul i32 %1321,37
    %1323 = add i32 %1319,%1322
    %1324 = getelementptr [5 x i32]*, [5 x i32]** %2, i32 4, i32 2
    %1325 = load [5 x i32]*, [5 x i32]** %1324
    %1326 = sub i32 0,103
    %1327 = mul i32 %1325,%1326
    %1328 = add i32 %1323,%1327
    %1329 = getelementptr [5 x i32]*, [5 x i32]** %2, i32 4, i32 3
    %1330 = load [5 x i32]*, [5 x i32]** %1329
    %1331 = sub i32 0,13
    %1332 = mul i32 %1330,%1331
    %1333 = add i32 %1328,%1332
    %1334 = getelementptr [5 x i32]*, [5 x i32]** %2, i32 4, i32 4
    %1335 = load [5 x i32]*, [5 x i32]** %1334
    %1336 = sub i32 0,114
    %1337 = mul i32 %1335,%1336
    %1338 = add i32 %1333,%1337
    %1339 = call i32 @relu_reg([5 x i32]* %1338)
    %1340 = sub i32 0,23
    %1341 = mul i32 %1339,%1340
    %1342 = add i32 %1215,%1341
    %1343 = getelementptr [5 x i32]*, [5 x i32]** %2, i32 0, i32 0
    %1344 = load [5 x i32]*, [5 x i32]** %1343
    %1345 = mul i32 %1344,67
    %1346 = getelementptr [5 x i32]*, [5 x i32]** %2, i32 0, i32 1
    %1347 = load [5 x i32]*, [5 x i32]** %1346
    %1348 = mul i32 %1347,42
    %1349 = getelementptr [5 x i32]*, [5 x i32]** %2, i32 0, i32 0
    %1350 = load [5 x i32]*, [5 x i32]** %1349
    %1351 = mul i32 %1350,67
    %1352 = getelementptr [5 x i32]*, [5 x i32]** %2, i32 0, i32 1
    %1353 = load [5 x i32]*, [5 x i32]** %1352
    %1354 = mul i32 %1353,42
    %1355 = add i32 %1351,%1354
    %1356 = getelementptr [5 x i32]*, [5 x i32]** %2, i32 0, i32 2
    %1357 = load [5 x i32]*, [5 x i32]** %1356
    %1358 = mul i32 %1357,41
    %1359 = add i32 %1355,%1358
    %1360 = getelementptr [5 x i32]*, [5 x i32]** %2, i32 0, i32 3
    %1361 = load [5 x i32]*, [5 x i32]** %1360
    %1362 = sub i32 0,123
    %1363 = mul i32 %1361,%1362
    %1364 = add i32 %1359,%1363
    %1365 = getelementptr [5 x i32]*, [5 x i32]** %2, i32 0, i32 4
    %1366 = load [5 x i32]*, [5 x i32]** %1365
    %1367 = sub i32 0,92
    %1368 = mul i32 %1366,%1367
    %1369 = add i32 %1364,%1368
    %1370 = getelementptr [5 x i32]*, [5 x i32]** %2, i32 1, i32 0
    %1371 = load [5 x i32]*, [5 x i32]** %1370
    %1372 = mul i32 %1371,10
    %1373 = add i32 %1369,%1372
    %1374 = getelementptr [5 x i32]*, [5 x i32]** %2, i32 1, i32 1
    %1375 = load [5 x i32]*, [5 x i32]** %1374
    %1376 = sub i32 0,77
    %1377 = mul i32 %1375,%1376
    %1378 = add i32 %1373,%1377
    %1379 = getelementptr [5 x i32]*, [5 x i32]** %2, i32 1, i32 2
    %1380 = load [5 x i32]*, [5 x i32]** %1379
    %1381 = mul i32 %1380,75
    %1382 = add i32 %1378,%1381
    %1383 = getelementptr [5 x i32]*, [5 x i32]** %2, i32 1, i32 3
    %1384 = load [5 x i32]*, [5 x i32]** %1383
    %1385 = mul i32 %1384,96
    %1386 = add i32 %1382,%1385
    %1387 = getelementptr [5 x i32]*, [5 x i32]** %2, i32 1, i32 4
    %1388 = load [5 x i32]*, [5 x i32]** %1387
    %1389 = sub i32 0,51
    %1390 = mul i32 %1388,%1389
    %1391 = add i32 %1386,%1390
    %1392 = getelementptr [5 x i32]*, [5 x i32]** %2, i32 2, i32 0
    %1393 = load [5 x i32]*, [5 x i32]** %1392
    %1394 = mul i32 %1393,109
    %1395 = add i32 %1391,%1394
    %1396 = getelementptr [5 x i32]*, [5 x i32]** %2, i32 2, i32 1
    %1397 = load [5 x i32]*, [5 x i32]** %1396
    %1398 = sub i32 0,74
    %1399 = mul i32 %1397,%1398
    %1400 = add i32 %1395,%1399
    %1401 = getelementptr [5 x i32]*, [5 x i32]** %2, i32 2, i32 2
    %1402 = load [5 x i32]*, [5 x i32]** %1401
    %1403 = sub i32 0,7
    %1404 = mul i32 %1402,%1403
    %1405 = add i32 %1400,%1404
    %1406 = getelementptr [5 x i32]*, [5 x i32]** %2, i32 2, i32 3
    %1407 = load [5 x i32]*, [5 x i32]** %1406
    %1408 = sub i32 0,122
    %1409 = mul i32 %1407,%1408
    %1410 = add i32 %1405,%1409
    %1411 = getelementptr [5 x i32]*, [5 x i32]** %2, i32 2, i32 4
    %1412 = load [5 x i32]*, [5 x i32]** %1411
    %1413 = mul i32 %1412,67
    %1414 = add i32 %1410,%1413
    %1415 = getelementptr [5 x i32]*, [5 x i32]** %2, i32 3, i32 0
    %1416 = load [5 x i32]*, [5 x i32]** %1415
    %1417 = mul i32 %1416,47
    %1418 = add i32 %1414,%1417
    %1419 = getelementptr [5 x i32]*, [5 x i32]** %2, i32 3, i32 1
    %1420 = load [5 x i32]*, [5 x i32]** %1419
    %1421 = mul i32 %1420,22
    %1422 = add i32 %1418,%1421
    %1423 = getelementptr [5 x i32]*, [5 x i32]** %2, i32 3, i32 2
    %1424 = load [5 x i32]*, [5 x i32]** %1423
    %1425 = sub i32 0,68
    %1426 = mul i32 %1424,%1425
    %1427 = add i32 %1422,%1426
    %1428 = getelementptr [5 x i32]*, [5 x i32]** %2, i32 3, i32 3
    %1429 = load [5 x i32]*, [5 x i32]** %1428
    %1430 = mul i32 %1429,38
    %1431 = add i32 %1427,%1430
    %1432 = getelementptr [5 x i32]*, [5 x i32]** %2, i32 3, i32 4
    %1433 = load [5 x i32]*, [5 x i32]** %1432
    %1434 = mul i32 %1433,29
    %1435 = add i32 %1431,%1434
    %1436 = getelementptr [5 x i32]*, [5 x i32]** %2, i32 4, i32 0
    %1437 = load [5 x i32]*, [5 x i32]** %1436
    %1438 = mul i32 %1437,115
    %1439 = add i32 %1435,%1438
    %1440 = getelementptr [5 x i32]*, [5 x i32]** %2, i32 4, i32 1
    %1441 = load [5 x i32]*, [5 x i32]** %1440
    %1442 = sub i32 0,121
    %1443 = mul i32 %1441,%1442
    %1444 = add i32 %1439,%1443
    %1445 = getelementptr [5 x i32]*, [5 x i32]** %2, i32 4, i32 2
    %1446 = load [5 x i32]*, [5 x i32]** %1445
    %1447 = mul i32 %1446,36
    %1448 = add i32 %1444,%1447
    %1449 = getelementptr [5 x i32]*, [5 x i32]** %2, i32 4, i32 3
    %1450 = load [5 x i32]*, [5 x i32]** %1449
    %1451 = sub i32 0,49
    %1452 = mul i32 %1450,%1451
    %1453 = add i32 %1448,%1452
    %1454 = getelementptr [5 x i32]*, [5 x i32]** %2, i32 4, i32 4
    %1455 = load [5 x i32]*, [5 x i32]** %1454
    %1456 = mul i32 %1455,85
    %1457 = add i32 %1453,%1456
    %1458 = call i32 @relu_reg([5 x i32]* %1457)
    %1459 = mul i32 %1458,46
    %1460 = add i32 %1342,%1459
    %1461 = icmp gt i32 %1460,i32 0
    br i32 %1461 %4 %3

3:
    ret i32 0

4:
    ret i32 1
}
define dso_local i32 @main([5 x i32]* %0){
1:
    %2 = call i32 @getint()
    %3 = alloca i32
    store i32 %2, i32* %3
    %4 = alloca [5 x [5 x i32]]
    br %5

5:
    %8 = load i32, i32* %3
    %9 = icmp gt i32 %8,i32 0
    br i32 %9 %6 %7

6:
    %10 = alloca i32
    store i32 0, i32* %10
    br %11

7:
    ret i32 0

11:
    %14 = load i32, i32* %10
    %15 = icmp lt i32 %14,i32 5
    br i32 %15 %12 %13

12:
    %16 = alloca i32
    store i32 0, i32* %16
    br %17

13:
    %35 = load [5 x [5 x i32]], [5 x [5 x i32]]* %4
    %36 = call i32 @model([5 x [5 x i32]] %35)
    br i32 %36 %33 %34

17:
    %20 = load i32, i32* %16
    %21 = icmp lt i32 %20,i32 5
    br i32 %21 %18 %19

18:
    %22 = load i32, i32* %10
    %23 = load i32, i32* %16
    %24 = getelementptr [5 x [5 x i32]], [5 x [5 x i32]]* %4, i32 %22, i32 %23
    %25 = call i32 @getint()
    store i32 %25, i32* %24
    %26 = load i32, i32* %16
    %27 = load i32, i32* %16
    %28 = add i32 %27,1
    store i32 %28, i32* %16
    br %17

19:
    %29 = load i32, i32* %10
    %30 = load i32, i32* %10
    %31 = add i32 %30,1
    store i32 %31, i32* %10
    br %11

32:
    %37 = load i32, i32* %3
    %38 = load i32, i32* %3
    %39 = sub i32 %38,1
    store i32 %39, i32* %3
    br %5

33:
    call void @putch(i32 99)
    call void @putch(i32 97)
    call void @putch(i32 116)
    call void @putch(i32 10)
    br %32

34:
    call void @putch(i32 100)
    call void @putch(i32 111)
    call void @putch(i32 103)
    call void @putch(i32 10)
    br %32
}

